<?xml version="1.0" standalone="no"?>
<!DOCTYPE svg PUBLIC "-//W3C//DTD SVG 1.1//EN" "http://www.w3.org/Graphics/SVG/1.1/DTD/svg11.dtd" >
<svg xmlns="http://www.w3.org/2000/svg">
<metadata>Generated by IcoMoon</metadata>
<defs>
<font id="icomoon" horiz-adv-x="1024">
<font-face units-per-em="1024" ascent="960" descent="-64" />
<missing-glyph horiz-adv-x="1024" />
<glyph unicode="&#x20;" horiz-adv-x="512" d="" />
<glyph unicode="&#xe900;" glyph-name="sunset" d="M512 426.667c-141.067 0-256-114.933-256-256 0-23.467 19.2-42.667 42.667-42.667s42.667 19.2 42.667 42.667c0 94.133 76.533 170.667 170.667 170.667s170.667-76.533 170.667-170.667c0-23.467 19.2-42.667 42.667-42.667s42.667 19.2 42.667 42.667c0 141.067-114.933 256-256 256zM210.4 411.734c8.267-8.267 19.2-12.533 30.133-12.533s21.867 4.267 30.133 12.533c16.533 16.533 16.533 43.733 0 60.267l-60.533 60.533c-16.533 16.533-43.733 16.533-60.267 0s-16.533-43.733 0-60.267l60.533-60.533zM42.667 128h85.333c23.467 0 42.667 19.2 42.667 42.667s-19.2 42.667-42.667 42.667h-85.333c-23.467 0-42.667-19.2-42.667-42.667s19.2-42.667 42.667-42.667zM853.333 170.667c0-23.467 19.2-42.667 42.667-42.667h85.333c23.467 0 42.667 19.2 42.667 42.667s-19.2 42.667-42.667 42.667h-85.333c-23.467 0-42.667-19.2-42.667-42.667zM783.467 399.467c10.933 0 21.867 4.267 30.133 12.533l60.533 60.533c16.533 16.533 16.533 43.733 0 60.267s-43.733 16.533-60.267 0l-60.533-60.533c-16.533-16.533-16.533-43.733 0-60.267 8.267-8.533 19.2-12.533 30.133-12.533zM981.333 42.667h-938.667c-23.467 0-42.667-19.2-42.667-42.667s19.2-42.667 42.667-42.667h938.667c23.467 0 42.667 19.2 42.667 42.667s-19.2 42.667-42.667 42.667zM481.867 524.534c0.533-0.533 0.8-0.8 1.333-1.333 0 0 0 0 0 0s0.267-0.267 0.267-0.267c0 0 0.267-0.267 0.267-0.267s0 0 0 0 0.267-0.267 0.267-0.267c0 0 0 0 0 0 3.467-2.933 7.2-5.333 11.2-6.933 0 0 0 0 0 0s0.267 0 0.267 0c0 0 0.267 0 0.267 0s0 0 0 0c4.267-1.867 9.067-2.933 13.867-2.933 0 0 0 0 0 0 0.267 0 0.267 0 0.533 0 0 0 0 0 0 0s0.267 0 0.267 0c0 0 0.267 0 0.267 0s0.267 0 0.267 0 0.267 0 0.533 0 0.267 0 0.533 0c0 0 0.267 0 0.267 0s0.267 0 0.267 0c0 0 0.267 0 0.267 0s0 0 0 0c0.267 0 0.267 0 0.533 0 0 0 0 0 0 0 4.8 0.267 9.6 1.333 13.867 3.2 0 0 0 0 0 0s0.267 0 0.267 0c0 0 0.267 0 0.267 0s0 0 0.267 0c3.733 1.6 7.467 3.733 10.667 6.667 0 0 0 0 0 0s0.267 0.267 0.267 0.267c0 0 0 0 0.267 0 0 0 0.267 0 0.267 0.267 0 0 0.267 0.267 0.267 0.267s0 0 0.267 0c0.533 0.533 1.067 1.067 1.6 1.6l170.667 170.667c16.533 16.533 16.533 43.733 0 60.267s-43.733 16.533-60.267 0l-97.333-98.133v195.733c0 23.467-19.2 42.667-42.667 42.667s-42.667-19.2-42.667-42.667v-195.733l-97.867 97.867c-16.533 16.533-43.733 16.533-60.267 0s-16.533-43.733 0-60.267l170.667-170.667z" />
<glyph unicode="&#xe901;" glyph-name="sunrise" d="M512 426.667c-141.067 0-256-114.933-256-256 0-23.467 19.2-42.667 42.667-42.667s42.667 19.2 42.667 42.667c0 94.133 76.533 170.667 170.667 170.667s170.667-76.533 170.667-170.667c0-23.467 19.2-42.667 42.667-42.667s42.667 19.2 42.667 42.667c0 141.067-114.933 256-256 256zM210.4 411.734c8.267-8.267 19.2-12.533 30.133-12.533s21.867 4.267 30.133 12.533c16.533 16.533 16.533 43.733 0 60.267l-60.533 60.533c-16.533 16.533-43.733 16.533-60.267 0s-16.533-43.733 0-60.267l60.533-60.533zM42.667 128h85.333c23.467 0 42.667 19.2 42.667 42.667s-19.2 42.667-42.667 42.667h-85.333c-23.467 0-42.667-19.2-42.667-42.667s19.2-42.667 42.667-42.667zM853.333 170.667c0-23.467 19.2-42.667 42.667-42.667h85.333c23.467 0 42.667 19.2 42.667 42.667s-19.2 42.667-42.667 42.667h-85.333c-23.467 0-42.667-19.2-42.667-42.667zM783.467 399.467c10.933 0 21.867 4.267 30.133 12.533l60.533 60.533c16.533 16.533 16.533 43.733 0 60.267s-43.733 16.533-60.267 0l-60.533-60.533c-16.533-16.533-16.533-43.733 0-60.267 8.267-8.533 19.2-12.533 30.133-12.533zM981.333 42.667h-938.667c-23.467 0-42.667-19.2-42.667-42.667s19.2-42.667 42.667-42.667h938.667c23.467 0 42.667 19.2 42.667 42.667s-19.2 42.667-42.667 42.667zM371.467 652.534l97.867 97.867v-195.733c0-23.467 19.2-42.667 42.667-42.667s42.667 19.2 42.667 42.667v195.733l97.867-97.867c8.267-8.267 19.2-12.533 30.133-12.533s21.867 4.267 30.133 12.533c16.533 16.533 16.533 43.733 0 60.267l-170.667 170.667c-0.533 0.533-1.067 1.067-1.6 1.6 0 0 0 0-0.267 0 0 0-0.267 0.267-0.267 0.267s-0.267 0-0.267 0.267c0 0 0 0-0.267 0 0 0-0.267 0.267-0.267 0.267s0 0 0 0c-3.2 2.933-6.933 5.067-10.933 6.667 0 0 0 0 0 0s-0.267 0-0.267 0c0 0 0 0-0.267 0 0 0 0 0-0.267 0-4 1.6-8.267 2.667-12.8 2.933 0 0 0 0 0 0s-0.267 0-0.267 0c0 0-0.267 0-0.267 0s-0.267 0-0.267 0c0 0-0.267 0-0.267 0s0 0-0.267 0c-1.067 0-2.133 0-3.2 0 0 0 0 0-0.267 0 0 0-0.267 0-0.267 0s-0.267 0-0.267 0c0 0-0.267 0-0.267 0s-0.267 0-0.267 0c0 0 0 0 0 0-4.267-0.267-8.533-1.333-12.533-2.933 0 0 0 0 0 0s-0.267 0-0.267 0c0 0-0.267 0-0.267 0s0 0 0 0c-4.267-1.6-8-4-11.733-7.2 0 0 0 0 0 0s-0.267-0.267-0.267-0.267c0 0 0 0 0 0s-0.267-0.267-0.267-0.267c0 0-0.267-0.267-0.267-0.267s0 0 0 0c-0.533-0.267-0.8-0.8-1.333-1.333l-170.667-170.667c-16.533-16.533-16.533-43.733 0-60.267s43.733-16.533 60.267 0.267z" />
<glyph unicode="&#xe902;" glyph-name="menu" d="M896 469.334h-768c-23.467 0-42.667-19.2-42.667-42.667s19.2-42.667 42.667-42.667h768c23.467 0 42.667 19.2 42.667 42.667s-19.2 42.667-42.667 42.667zM128 640h768c23.467 0 42.667 19.2 42.667 42.667s-19.2 42.667-42.667 42.667h-768c-23.467 0-42.667-19.2-42.667-42.667s19.2-42.667 42.667-42.667zM896 213.334h-768c-23.467 0-42.667-19.2-42.667-42.667s19.2-42.667 42.667-42.667h768c23.467 0 42.667 19.2 42.667 42.667s-19.2 42.667-42.667 42.667z" />
</font></defs></svg>